{
  "salons": [
    {"id":1, "name":"Hår & Häpna", "price":150, "streetAddress":"Rådmansgatan 46", "postal_code":"113 57 Stockholm", "phone":"08-522 389 20", "www":"www.salongweb.se", "available":"12.00", "stars": 3, "raters": 32,"duration":30,"img": "salon.jpg", "decription": "Lorem ipsum dolor sit amet, vulputate nunc. Auctor viverra. Ridiculus feugiat nunc porttitor volut pat, acu quis torquent iaculis ultricies massa, duis nun quis que amet."},
    {"id":2, "name":"Hår & Häpna", "price":150, "streetAddress":"Rådmansgatan 46", "postal_code":"113 57 Stockholm", "phone":"08-522 389 20", "www":"www.salongweb.se", "available":"12.00", "stars": 4, "raters": 32,"duration":30,"img": "salon.jpg", "decription": "Lorem ipsum dolor sit amet, vulputate nunc. Auctor viverra. Ridiculus feugiat nunc porttitor volut pat, acu quis torquent iaculis ultricies massa, duis nun quis que amet."},
    {"id":3, "name":"Hår & Häpna", "price":150, "streetAddress":"Rådmansgatan 46", "postal_code":"113 57 Stockholm", "phone":"08-522 389 20", "www":"www.salongweb.se", "available":"12.00", "stars": 4, "raters": 32, "duration":30,"img": "salon.jpg", "decription": "Lorem ipsum dolor sit amet, vulputate nunc. Auctor viverra. Ridiculus feugiat nunc porttitor volut pat, acu quis torquent iaculis ultricies massa, duis nun quis que amet."},
    {"id":4, "name":"Hår & Häpna", "price":150, "streetAddress":"Rådmansgatan 46", "postal_code":"113 57 Stockholm", "phone":"08-522 389 20", "www":"www.salongweb.se", "available":"12.00", "stars": 4, "raters": 32, "duration":30,"img": "salon.jpg", "decription": "Lorem ipsum dolor sit amet, vulputate nunc. Auctor viverra. Ridiculus feugiat nunc porttitor volut pat, acu quis torquent iaculis ultricies massa, duis nun quis que amet."},
    {"id":5, "name":"Hår & Häpna", "price":150, "streetAddress":"Rådmansgatan 46", "postal_code":"113 57 Stockholm", "phone":"08-522 389 20", "www":"www.salongweb.se", "available":"12.00", "stars": 4, "raters": 32, "duration":30,"img": "salon.jpg", "decription": "Lorem ipsum dolor sit amet, vulputate nunc. Auctor viverra. Ridiculus feugiat nunc porttitor volut pat, acu quis torquent iaculis ultricies massa, duis nun quis que amet."},
    {"id":6, "name":"Hår & Häpna", "price":150, "streetAddress":"Rådmansgatan 46", "postal_code":"113 57 Stockholm", "phone":"08-522 389 20", "www":"www.salongweb.se", "available":"12.00", "stars": 4, "raters": 32, "duration":30,"img": "salon.jpg", "decription": "Lorem ipsum dolor sit amet, vulputate nunc. Auctor viverra. Ridiculus feugiat nunc porttitor volut pat, acu quis torquent iaculis ultricies massa, duis nun quis que amet."},
    {"id":7, "name":"Hår & Häpna", "price":150, "streetAddress":"Rådmansgatan 46", "postal_code":"113 57 Stockholm", "phone":"08-522 389 20", "www":"www.salongweb.se", "available":"12.00", "stars": 4, "raters": 32, "duration":30,"img": "salon.jpg", "decription": "Lorem ipsum dolor sit amet, vulputate nunc. Auctor viverra. Ridiculus feugiat nunc porttitor volut pat, acu quis torquent iaculis ultricies massa, duis nun quis que amet."},
    {"id":8, "name":"Hårley Davidson", "price":320, "streetAddress":"Rådmansgatan 46", "postal_code":"113 57 Stockholm", "phone":"08-522 389 20", "www":"www.salongweb.se", "available":"12.00", "stars": 2, "raters": 32,  "duration":30,"img": "salon.jpg", "decription": "Lorem ipsum dolor sit amet, vulputate nunc. Auctor viverra. Ridiculus feugiat nunc porttitor volut pat, acu quis torquent iaculis ultricies massa, duis nun quis que amet."},
    {"id":9, "name":"Sax & Fön", "price":320, "streetAddress":"Rådmansgatan 46", "postal_code":"113 57 Stockholm", "phone":"08-522 389 20", "www":"www.salongweb.se", "available":"12.00", "stars": 4, "raters": 32,"duration":30,"img": "salon.jpg", "decription": "Lorem ipsum dolor sit amet, vulputate nunc. Auctor viverra. Ridiculus feugiat nunc porttitor volut pat, acu quis torquent iaculis ultricies massa, duis nun quis que amet."},
    {"id":10, "name":"Hårizont", "price":320, "streetAddress":"Rådmansgatan 46", "postal_code":"113 57 Stockholm", "phone":"08-522 389 20", "www":"www.salongweb.se", "available":"12.00", "stars": 4, "raters": 32, "duration":30,"img": "salon.jpg", "decription": "Lorem ipsum dolor sit amet, vulputate nunc. Auctor viverra. Ridiculus feugiat nunc porttitor volut pat, acu quis torquent iaculis ultricies massa, duis nun quis que amet."},
    {"id":11, "name":"Hårhuset", "price":320, "streetAddress":"Rådmansgatan 46", "postal_code":"113 57 Stockholm", "phone":"08-522 389 20", "www":"www.salongweb.se", "available":"12.00", "stars": 4, "raters": 32, "duration":30,"img": "salon.jpg", "decription": "Lorem ipsum dolor sit amet, vulputate nunc. Auctor viverra. Ridiculus feugiat nunc porttitor volut pat, acu quis torquent iaculis ultricies massa, duis nun quis que amet."},
    {"id":12, "name":"Hair & Nu", "price":320, "streetAddress":"Rådmansgatan 46", "postal_code":"113 57 Stockholm", "phone":"08-522 389 20", "www":"www.salongweb.se", "available":"12.00", "stars": 4, "raters": 32, "duration":30,"img": "salon.jpg", "decription": "Lorem ipsum dolor sit amet, vulputate nunc. Auctor viverra. Ridiculus feugiat nunc porttitor volut pat, acu quis torquent iaculis ultricies massa, duis nun quis que amet."},
    {"id":13, "name":"Hårhuset", "price":320, "streetAddress":"Rådmansgatan 46", "postal_code":"113 57 Stockholm", "phone":"08-522 389 20", "www":"www.salongweb.se", "available":"12.00", "stars": 4, "raters": 32, "duration":30,"img": "salon.jpg", "decription": "Lorem ipsum dolor sit amet, vulputate nunc. Auctor viverra. Ridiculus feugiat nunc porttitor volut pat, acu quis torquent iaculis ultricies massa, duis nun quis que amet."},
    {"id":14, "name":"Hair & Nu", "price":320, "streetAddress":"Rådmansgatan 46", "postal_code":"113 57 Stockholm", "phone":"08-522 389 20", "www":"www.salongweb.se", "available":"12.00", "stars": 4, "raters": 32, "duration":30,"img": "salon.jpg", "decription": "Lorem ipsum dolor sit amet, vulputate nunc. Auctor viverra. Ridiculus feugiat nunc porttitor volut pat, acu quis torquent iaculis ultricies massa, duis nun quis que amet."},
    {"id":15, "name":"Håroskopet", "price":550, "streetAddress":"Rådmansgatan 46", "postal_code":"113 57 Stockholm", "phone":"08-522 389 20", "www":"www.salongweb.se", "available":"12.00", "stars": 4, "raters": 32,  "duration":30,"img": "salon.jpg", "decription": "Lorem ipsum dolor sit amet, vulputate nunc. Auctor viverra. Ridiculus feugiat nunc porttitor volut pat, acu quis torquent iaculis ultricies massa, duis nun quis que amet."},
    {"id":16, "name":"Håroskopet", "price":550, "streetAddress":"Rådmansgatan 46", "postal_code":"113 57 Stockholm", "phone":"08-522 389 20", "www":"www.salongweb.se", "available":"12.00", "stars": 4, "raters": 32,"duration":30,"img": "salon.jpg", "decription": "Lorem ipsum dolor sit amet, vulputate nunc. Auctor viverra. Ridiculus feugiat nunc porttitor volut pat, acu quis torquent iaculis ultricies massa, duis nun quis que amet."},
    {"id":17, "name":"Håroskopet", "price":550, "streetAddress":"Rådmansgatan 46", "postal_code":"113 57 Stockholm", "phone":"08-522 389 20", "www":"www.salongweb.se", "available":"12.00", "stars": 4, "raters": 32, "duration":30,"img": "salon.jpg", "decription": "Lorem ipsum dolor sit amet, vulputate nunc. Auctor viverra. Ridiculus feugiat nunc porttitor volut pat, acu quis torquent iaculis ultricies massa, duis nun quis que amet."},
    {"id":18, "name":"Håroskopet", "price":550, "streetAddress":"Rådmansgatan 46", "postal_code":"113 57 Stockholm", "phone":"08-522 389 20", "www":"www.salongweb.se", "available":"12.00", "stars": 4, "raters": 32, "duration":30,"img": "salon.jpg", "decription": "Lorem ipsum dolor sit amet, vulputate nunc. Auctor viverra. Ridiculus feugiat nunc porttitor volut pat, acu quis torquent iaculis ultricies massa, duis nun quis que amet."},
    {"id":19, "name":"Håroskopet", "price":550, "streetAddress":"Rådmansgatan 46", "postal_code":"113 57 Stockholm", "phone":"08-522 389 20", "www":"www.salongweb.se", "available":"12.00", "stars": 4, "raters": 32, "duration":30,"img": "salon.jpg", "decription": "Lorem ipsum dolor sit amet, vulputate nunc. Auctor viverra. Ridiculus feugiat nunc porttitor volut pat, acu quis torquent iaculis ultricies massa, duis nun quis que amet."},
    {"id":20, "name":"Håroskopet", "price":550, "streetAddress":"Rådmansgatan 46", "postal_code":"113 57 Stockholm", "phone":"08-522 389 20", "www":"www.salongweb.se", "available":"12.00", "stars": 4, "raters": 32, "duration":30,"img": "salon.jpg", "decription": "Lorem ipsum dolor sit amet, vulputate nunc. Auctor viverra. Ridiculus feugiat nunc porttitor volut pat, acu quis torquent iaculis ultricies massa, duis nun quis que amet."},
    {"id":21, "name":"Håroskopet", "price":550, "streetAddress":"Rådmansgatan 46", "postal_code":"113 57 Stockholm", "phone":"08-522 389 20", "www":"www.salongweb.se", "available":"12.00", "stars": 4, "raters": 32, "duration":30, "img": "salon.jpg","decription": "Lorem ipsum dolor sit amet, vulputate nunc. Auctor viverra. Ridiculus feugiat nunc porttitor volut pat, acu quis torquent iaculis ultricies massa, duis nun quis que amet."}
  ]
}